Basic examples • designit
…
Use random assignment function to place samples to plate locations

bc$distribute_samples(samples = samples,
                      distribution_function = distribute_random,
                      random_seed = 42)

bc$get_samples()
#> # A tibble: 88 x 10
#>    plate column   row replicate animal group treatment  dose SampleID AnimalID
#>    <int>  <int> <int> <chr>     <chr>  <dbl> <fct>     <dbl> <chr>    <chr>   
#>  1     1      1     2 4         1          4 TRT1         50 TRT1_1_4 TRT1_1  
#>  2     1      1     3 <NA>      <NA>      NA <NA>         NA <NA>     <NA>    
#>  3     1      1     4 2         2          5 TRT2         50 TRT2_2_2 TRT2_2  
#>  4     1      1     5 <NA>      <NA>      NA <NA>         NA <NA>     <NA>    
#>  5     1      2     1 2         1          3 TRT2         25 TRT2_1_2 TRT2_1  
#>  6     1      2     2 <NA>      <NA>      NA <NA>         NA <NA>     <NA>    
#>  7     1      2     3 4         1          2 TRT1         25 TRT1_1_4 TRT1_1  
#>  8     1      2     4 2         2          4 TRT1         50 TRT1_2_2 TRT1_2  
#>  9     1      2     5 <NA>      <NA>      NA <NA>         NA <NA>     <NA>    
#> 10     1      2     6 3         2          2 TRT1         25 TRT1_2_3 TRT1_2  
#> # … with 78 more rows
bc$get_samples(remove_empty_locations = TRUE)
#> # A tibble: 60 x 10
#>    plate column   row replicate animal group treatment  dose SampleID   AnimalID
#>    <int>  <int> <int> <chr>     <chr>  <dbl> <fct>     <dbl> <chr>      <chr>   
#>  1     1      1     2 4         1          4 TRT1         50 TRT1_1_4   TRT1_1  
#>  2     1      1     4 2         2          5 TRT2         50 TRT2_2_2   TRT2_2  
#>  3     1      2     1 2         1          3 TRT2         25 TRT2_1_2   TRT2_1  
#>  4     1      2     3 4         1          2 TRT1         25 TRT1_1_4   TRT1_1  
#>  5     1      2     4 2         2          4 TRT1         50 TRT1_2_2   TRT1_2  
#>  6     1      2     6 3         2          2 TRT1         25 TRT1_2_3   TRT1_2  
#>  7     1      3     1 2         1          5 TRT2         50 TRT2_1_2   TRT2_1  
#>  8     1      3     2 2         3          1 vehicle       0 vehicle_3… vehicle…
#>  9     1      3     3 1         1          3 TRT2         25 TRT2_1_1   TRT2_1  
#> 10     1      3     4 3         3          1 vehicle       0 vehicle_3… vehicle…
#> # … with 50 more rows
…
