Shuffling with constraints • designit
…
shuffle_proposal <- shuffle_with_subgroup_formation(subg, possible, report_grouping_as_attribute = TRUE)

shuffle_proposal()
#> $location_assignment
#>  [1]  8  9 12 10 11 13 14 38 39 40 41 42 43 44 45 47 48 46 49 50 51 52 53 54 56
#> [26] 59  1  4  5  7 55 57 58  2  3  6 35 36 37 19 26 27 20 21 15 16 17 18 22 23
#> [51] 24 25 28 29 30 31 32 33 34
#> 
#> $samples_attr
#> # A tibble: 59 × 4
#>    alloc_var_level group subgroup Cage 
#>    <chr>           <int>    <int> <chr>
#>  1 Treatment A         7        2 7_2  
#>  2 Treatment B         7        1 7_1  
#>  3 Treatment B         7        1 7_1  
#>  4 Treatment A         7        2 7_2  
#>  5 Treatment A         7        2 7_2  
#>  6 Treatment B         7        1 7_1  
#>  7 Treatment A         7        2 7_2  
#>  8 Treatment A         1        1 1_1  
#>  9 Treatment A         1        1 1_1  
#> 10 Treatment A         1        2 1_2  
#> # ℹ 49 more rows
…
